module gitlab.com/SafarikDavid/ctc_ls_2022/cv/5

go 1.18

require (
	github.com/spf13/cobra v1.4.0
	go.etcd.io/etcd/client/v3 v3.5.3
	google.golang.org/grpc v1.45.0
	google.golang.org/protobuf v1.28.0
)

require (
	github.com/coreos/go-semver v0.3.0 // indirect
	github.com/coreos/go-systemd/v22 v22.3.2 // indirect
	github.com/gogo/protobuf v1.3.2 // indirect
	github.com/golang/protobuf v1.5.2 // indirect
	github.com/google/go-cmp v0.5.7 // indirect
	github.com/inconshreveable/mousetrap v1.0.0 // indirect
	github.com/spf13/pflag v1.0.5 // indirect
	go.etcd.io/etcd/api/v3 v3.5.3 // indirect
	go.etcd.io/etcd/client/pkg/v3 v3.5.3 // indirect
	go.uber.org/atomic v1.7.0 // indirect
	go.uber.org/multierr v1.6.0 // indirect
	go.uber.org/zap v1.17.0 // indirect
	golang.org/x/net v0.0.0-20220412020605-290c469a71a5 // indirect
	golang.org/x/sys v0.0.0-20220412211240-33da011f77ad // indirect
	golang.org/x/text v0.3.7 // indirect
	golang.org/x/xerrors v0.0.0-20220411194840-2f41105eb62f // indirect
	google.golang.org/genproto v0.0.0-20220407144326-9054f6ed7bac // indirect
)
